Engine\Binaries\Win64\CrashReportClient.exe	2017-05-20T13:51:56.730Z
MoA\Binaries\Win64\MoA-Win64-Shipping.exe	2017-06-21T18:42:05.656Z
MoA\Content\Splash\Splash.bmp	2017-06-15T20:13:28.709Z
MoA.exe	2017-06-21T18:44:21.490Z
Engine\Extras\Redist\en-us\UE4PrereqSetup_x64.exe	2017-05-20T14:23:04.815Z
Engine\Binaries\ThirdParty\NVIDIA\NVaftermath\Win64\GFSDK_Aftermath_Lib.dll	2017-05-20T13:49:08.196Z
Engine\Binaries\ThirdParty\PhysX\Win64\VS2015\PxFoundation_x64.dll	2017-05-20T13:49:21.525Z
Engine\Binaries\ThirdParty\PhysX\Win64\VS2015\PxPvdSDK_x64.dll	2017-05-20T13:49:21.555Z
Engine\Binaries\ThirdParty\PhysX\Win64\VS2015\PhysX3_x64.dll	2017-05-20T13:49:17.748Z
Engine\Binaries\ThirdParty\PhysX\Win64\VS2015\PhysX3Cooking_x64.dll	2017-05-20T13:49:19.322Z
Engine\Binaries\ThirdParty\PhysX\Win64\VS2015\PhysX3Common_x64.dll	2017-05-20T13:49:17.802Z
Engine\Binaries\ThirdParty\PhysX\Win64\VS2015\APEX_Clothing_x64.dll	2017-05-20T13:49:12.513Z
Engine\Binaries\ThirdParty\PhysX\Win64\VS2015\APEX_Destructible_x64.dll	2017-05-20T13:49:12.556Z
Engine\Binaries\ThirdParty\PhysX\Win64\VS2015\APEX_Legacy_x64.dll	2017-05-20T13:49:12.613Z
Engine\Binaries\ThirdParty\PhysX\Win64\VS2015\ApexFramework_x64.dll	2017-05-20T13:49:14.696Z
Engine\Binaries\ThirdParty\Ogg\Win64\VS2015\libogg_64.dll	2017-05-20T13:49:08.484Z
Engine\Binaries\ThirdParty\Vorbis\Win64\VS2015\libvorbis_64.dll	2017-05-20T13:49:30.432Z
Engine\Binaries\ThirdParty\Vorbis\Win64\VS2015\libvorbisfile_64.dll	2017-05-20T13:49:30.442Z
Engine\Binaries\ThirdParty\Oculus\OculusMobile\SDK_1_0_3\Win64\VrApiShim.dll	2017-05-20T13:49:08.451Z
Engine\Binaries\ThirdParty\OpenVR\OpenVRv1_0_2\Win64\openvr_api.dll	2017-05-20T13:49:08.726Z
Engine\Build\Build.version	2017-05-20T13:58:07.886Z
Engine\Content\Slate\Checkerboard.png	2017-05-20T14:00:23.057Z
Engine\Content\Slate\Common\BoxShadow.png	2017-05-20T14:00:23.059Z
Engine\Content\Slate\Common\Button.png	2017-05-20T14:00:23.061Z
Engine\Content\Slate\Common\Button_Disabled.png	2017-05-20T14:00:23.062Z
Engine\Content\Slate\Common\Button_Hovered.png	2017-05-20T14:00:23.064Z
Engine\Content\Slate\Common\Button_Pressed.png	2017-05-20T14:00:23.065Z
Engine\Content\Slate\Common\Check.png	2017-05-20T14:00:23.067Z
Engine\Content\Slate\Common\CheckBox.png	2017-05-20T14:00:23.068Z
Engine\Content\Slate\Common\CheckBox_Checked.png	2017-05-20T14:00:23.070Z
Engine\Content\Slate\Common\CheckBox_Checked_Hovered.png	2017-05-20T14:00:23.071Z
Engine\Content\Slate\Common\CheckBox_Hovered.png	2017-05-20T14:00:23.073Z
Engine\Content\Slate\Common\CheckBox_Undetermined.png	2017-05-20T14:00:23.074Z
Engine\Content\Slate\Common\CheckBox_Undetermined_Hovered.png	2017-05-20T14:00:23.075Z
Engine\Content\Slate\Common\Checker.png	2017-05-20T14:00:23.077Z
Engine\Content\Slate\Common\Circle.png	2017-05-20T14:00:23.078Z
Engine\Content\Slate\Common\ColorGradingWheel.png	2017-05-20T14:00:23.080Z
Engine\Content\Slate\Common\ColorPicker_Mode_16x.png	2017-05-20T14:00:23.081Z
Engine\Content\Slate\Common\ColorPicker_Separator.png	2017-05-20T14:00:23.082Z
Engine\Content\Slate\Common\ColorPicker_SliderHandle.png	2017-05-20T14:00:23.084Z
Engine\Content\Slate\Common\ColorSpectrum.png	2017-05-20T14:00:23.086Z
Engine\Content\Slate\Common\ColorWheel.png	2017-05-20T14:00:23.088Z
Engine\Content\Slate\Common\ColumnHeader.png	2017-05-20T14:00:23.089Z
Engine\Content\Slate\Common\ColumnHeaderMenuButton_Hovered.png	2017-05-20T14:00:23.094Z
Engine\Content\Slate\Common\ColumnHeaderMenuButton_Normal.png	2017-05-20T14:00:23.095Z
Engine\Content\Slate\Common\ColumnHeader_Arrow.png	2017-05-20T14:00:23.091Z
Engine\Content\Slate\Common\ColumnHeader_Hovered.png	2017-05-20T14:00:23.092Z
Engine\Content\Slate\Common\ComboArrow.png	2017-05-20T14:00:23.096Z
Engine\Content\Slate\Common\CursorPing.png	2017-05-20T14:00:23.098Z
Engine\Content\Slate\Common\DebugBorder.PNG	2017-05-20T14:00:23.100Z
Engine\Content\Slate\Common\Delimiter.png	2017-05-20T14:00:23.101Z
Engine\Content\Slate\Common\DownArrow.png	2017-05-20T14:00:23.103Z
Engine\Content\Slate\Common\DropZoneIndicator_Above.png	2017-05-20T14:00:23.104Z
Engine\Content\Slate\Common\DropZoneIndicator_Below.png	2017-05-20T14:00:23.106Z
Engine\Content\Slate\Common\DropZoneIndicator_Onto.png	2017-05-20T14:00:23.107Z
Engine\Content\Slate\Common\EditableTextSelectionBackground.png	2017-05-20T14:00:23.108Z
Engine\Content\Slate\Common\EventMessage_Default.png	2017-05-20T14:00:23.110Z
Engine\Content\Slate\Common\ExpansionButton_CloseOverlay.png	2017-05-20T14:00:23.111Z
Engine\Content\Slate\Common\GroupBorder.png	2017-05-20T14:00:23.113Z
Engine\Content\Slate\Common\HeaderSplitterGrip.PNG	2017-05-20T14:00:23.114Z
Engine\Content\Slate\Common\LastColumnHeader_Hovered.png	2017-05-20T14:00:23.116Z
Engine\Content\Slate\Common\NoiseBackground.png	2017-05-20T14:00:23.117Z
Engine\Content\Slate\Common\ProgressBar_Background.png	2017-05-20T14:00:23.119Z
Engine\Content\Slate\Common\ProgressBar_Fill.png	2017-05-20T14:00:23.120Z
Engine\Content\Slate\Common\ProgressBar_Marquee.PNG	2017-05-20T14:00:23.121Z
Engine\Content\Slate\Common\RadioButton_SelectedBack_16x.png	2017-05-20T14:00:23.125Z
Engine\Content\Slate\Common\RadioButton_Selected_16x.png	2017-05-20T14:00:23.123Z
Engine\Content\Slate\Common\RadioButton_Unselected_16x.png	2017-05-20T14:00:23.126Z
Engine\Content\Slate\Common\RoundedSelection_16x.PNG	2017-05-20T14:00:23.127Z
Engine\Content\Slate\Common\Scrollbar_Background_Horizontal.png	2017-05-20T14:00:23.129Z
Engine\Content\Slate\Common\Scrollbar_Background_Vertical.png	2017-05-20T14:00:23.130Z
Engine\Content\Slate\Common\Scrollbar_Thumb.png	2017-05-20T14:00:23.132Z
Engine\Content\Slate\Common\ScrollBorderShadowBottom.png	2017-05-20T14:00:23.133Z
Engine\Content\Slate\Common\ScrollBorderShadowTop.png	2017-05-20T14:00:23.134Z
Engine\Content\Slate\Common\ScrollBoxShadowBottom.png	2017-05-20T14:00:23.136Z
Engine\Content\Slate\Common\ScrollBoxShadowLeft.png	2017-05-20T14:00:23.138Z
Engine\Content\Slate\Common\ScrollBoxShadowRight.png	2017-05-20T14:00:23.139Z
Engine\Content\Slate\Common\ScrollBoxShadowTop.png	2017-05-20T14:00:23.141Z
Engine\Content\Slate\Common\SearchGlass.PNG	2017-05-20T14:00:23.142Z
Engine\Content\Slate\Common\Selection.png	2017-05-20T14:00:23.143Z
Engine\Content\Slate\Common\Selector.png	2017-05-20T14:00:23.145Z
Engine\Content\Slate\Common\Separator.png	2017-05-20T14:00:23.146Z
Engine\Content\Slate\Common\SmallCheck.png	2017-05-20T14:00:23.148Z
Engine\Content\Slate\Common\SmallCheckBox.png	2017-05-20T14:00:23.149Z
Engine\Content\Slate\Common\SmallCheckBox_Checked.png	2017-05-20T14:00:23.151Z
Engine\Content\Slate\Common\SmallCheckBox_Checked_Hovered.png	2017-05-20T14:00:23.152Z
Engine\Content\Slate\Common\SmallCheckBox_Hovered.png	2017-05-20T14:00:23.153Z
Engine\Content\Slate\Common\SmallCheckBox_Undetermined.png	2017-05-20T14:00:23.155Z
Engine\Content\Slate\Common\SmallCheckBox_Undetermined_Hovered.png	2017-05-20T14:00:23.156Z
Engine\Content\Slate\Common\SortDownArrow.png	2017-05-20T14:00:23.158Z
Engine\Content\Slate\Common\SortDownArrows.png	2017-05-20T14:00:23.159Z
Engine\Content\Slate\Common\SortUpArrow.png	2017-05-20T14:00:23.160Z
Engine\Content\Slate\Common\SortUpArrows.png	2017-05-20T14:00:23.162Z
Engine\Content\Slate\Common\SpinArrows.png	2017-05-20T14:00:23.164Z
Engine\Content\Slate\Common\Spinbox.PNG	2017-05-20T14:00:23.165Z
Engine\Content\Slate\Common\Spinbox_Fill.png	2017-05-20T14:00:23.166Z
Engine\Content\Slate\Common\Spinbox_Fill_Dark.png	2017-05-20T14:00:23.168Z
Engine\Content\Slate\Common\Spinbox_Fill_Hovered.png	2017-05-20T14:00:23.169Z
Engine\Content\Slate\Common\Spinbox_Fill_Hovered_Dark.png	2017-05-20T14:00:23.170Z
Engine\Content\Slate\Common\Spinbox_Hovered.png	2017-05-20T14:00:23.172Z
Engine\Content\Slate\Common\SplitterHandleHighlight.png	2017-05-20T14:00:23.173Z
Engine\Content\Slate\Common\SubmenuArrow.png	2017-05-20T14:00:23.175Z
Engine\Content\Slate\Common\TableViewHeader.png	2017-05-20T14:00:23.176Z
Engine\Content\Slate\Common\TableViewMajorColumn.png	2017-05-20T14:00:23.177Z
Engine\Content\Slate\Common\TextBlockHighlightShape.png	2017-05-20T14:00:23.178Z
Engine\Content\Slate\Common\TextBlockHighlightShape_Empty.png	2017-05-20T14:00:23.180Z
Engine\Content\Slate\Common\TextBox.png	2017-05-20T14:00:23.181Z
Engine\Content\Slate\Common\TextBoxLabelBorder.PNG	2017-05-20T14:00:23.191Z
Engine\Content\Slate\Common\TextBox_Dark.png	2017-05-20T14:00:23.182Z
Engine\Content\Slate\Common\TextBox_Hovered.png	2017-05-20T14:00:23.184Z
Engine\Content\Slate\Common\TextBox_Hovered_Dark.png	2017-05-20T14:00:23.185Z
Engine\Content\Slate\Common\TextBox_ReadOnly.png	2017-05-20T14:00:23.187Z
Engine\Content\Slate\Common\TextBox_Special.png	2017-05-20T14:00:23.188Z
Engine\Content\Slate\Common\TextBox_Special_Hovered.png	2017-05-20T14:00:23.190Z
Engine\Content\Slate\Common\Throbber_Piece.png	2017-05-20T14:00:23.192Z
Engine\Content\Slate\Common\TreeArrow_Collapsed.png	2017-05-20T14:00:23.194Z
Engine\Content\Slate\Common\TreeArrow_Collapsed_Hovered.png	2017-05-20T14:00:23.195Z
Engine\Content\Slate\Common\TreeArrow_Expanded.png	2017-05-20T14:00:23.197Z
Engine\Content\Slate\Common\TreeArrow_Expanded_Hovered.png	2017-05-20T14:00:23.198Z
Engine\Content\Slate\Common\UpArrow.png	2017-05-20T14:00:23.199Z
Engine\Content\Slate\Common\VolumeControl_High.png	2017-05-20T14:00:23.201Z
Engine\Content\Slate\Common\VolumeControl_Low.png	2017-05-20T14:00:23.202Z
Engine\Content\Slate\Common\VolumeControl_Mid.png	2017-05-20T14:00:23.203Z
Engine\Content\Slate\Common\VolumeControl_Muted.png	2017-05-20T14:00:23.205Z
Engine\Content\Slate\Common\VolumeControl_Off.png	2017-05-20T14:00:23.206Z
Engine\Content\Slate\Common\WhiteGroupBorder.png	2017-05-20T14:00:23.207Z
Engine\Content\Slate\Common\X.PNG	2017-05-20T14:00:23.236Z
Engine\Content\Slate\Common\Window\WindowBackground.png	2017-05-20T14:00:23.209Z
Engine\Content\Slate\Common\Window\WindowBorder.png	2017-05-20T14:00:23.210Z
Engine\Content\Slate\Common\Window\WindowButton_Close_Hovered.png	2017-05-20T14:00:23.212Z
Engine\Content\Slate\Common\Window\WindowButton_Close_Normal.png	2017-05-20T14:00:23.213Z
Engine\Content\Slate\Common\Window\WindowButton_Close_Pressed.png	2017-05-20T14:00:23.215Z
Engine\Content\Slate\Common\Window\WindowButton_Maximize_Disabled.png	2017-05-20T14:00:23.216Z
Engine\Content\Slate\Common\Window\WindowButton_Maximize_Hovered.png	2017-05-20T14:00:23.217Z
Engine\Content\Slate\Common\Window\WindowButton_Maximize_Normal.png	2017-05-20T14:00:23.219Z
Engine\Content\Slate\Common\Window\WindowButton_Maximize_Pressed.png	2017-05-20T14:00:23.220Z
Engine\Content\Slate\Common\Window\WindowButton_Minimize_Disabled.png	2017-05-20T14:00:23.221Z
Engine\Content\Slate\Common\Window\WindowButton_Minimize_Hovered.png	2017-05-20T14:00:23.223Z
Engine\Content\Slate\Common\Window\WindowButton_Minimize_Normal.png	2017-05-20T14:00:23.224Z
Engine\Content\Slate\Common\Window\WindowButton_Minimize_Pressed.png	2017-05-20T14:00:23.225Z
Engine\Content\Slate\Common\Window\WindowButton_Restore_Hovered.png	2017-05-20T14:00:23.227Z
Engine\Content\Slate\Common\Window\WindowButton_Restore_Normal.png	2017-05-20T14:00:23.228Z
Engine\Content\Slate\Common\Window\WindowButton_Restore_Pressed.png	2017-05-20T14:00:23.230Z
Engine\Content\Slate\Common\Window\WindowOutline.png	2017-05-20T14:00:23.231Z
Engine\Content\Slate\Common\Window\WindowTitle.png	2017-05-20T14:00:23.232Z
Engine\Content\Slate\Common\Window\WindowTitle_Flashing.png	2017-05-20T14:00:23.234Z
Engine\Content\Slate\Common\Window\WindowTitle_Inactive.png	2017-05-20T14:00:23.235Z
Engine\Content\Slate\CrashTracker\MouseCursor.png	2017-05-20T14:00:23.238Z
Engine\Content\Slate\CrashTracker\Record.png	2017-05-20T14:00:23.239Z
Engine\Content\Slate\Docking\AppTabContentArea.png	2017-05-20T14:00:23.248Z
Engine\Content\Slate\Docking\AppTabWellSeparator.png	2017-05-20T14:00:23.249Z
Engine\Content\Slate\Docking\AppTab_Active.png	2017-05-20T14:00:23.241Z
Engine\Content\Slate\Docking\AppTab_ColorOverlay.png	2017-05-20T14:00:23.242Z
Engine\Content\Slate\Docking\AppTab_Foreground.png	2017-05-20T14:00:23.244Z
Engine\Content\Slate\Docking\AppTab_Hovered.png	2017-05-20T14:00:23.245Z
Engine\Content\Slate\Docking\AppTab_Inactive.png	2017-05-20T14:00:23.247Z
Engine\Content\Slate\Docking\CloseApp_Hovered.png	2017-05-20T14:00:23.251Z
Engine\Content\Slate\Docking\CloseApp_Normal.png	2017-05-20T14:00:23.252Z
Engine\Content\Slate\Docking\CloseApp_Pressed.png	2017-05-20T14:00:23.254Z
Engine\Content\Slate\Docking\DockingIndicator_Center.png	2017-05-20T14:00:23.255Z
Engine\Content\Slate\Docking\OuterDockingIndicator.png	2017-05-20T14:00:23.256Z
Engine\Content\Slate\Docking\ShowTabwellButton_Hovered.png	2017-05-20T14:00:23.258Z
Engine\Content\Slate\Docking\ShowTabwellButton_Normal.png	2017-05-20T14:00:23.259Z
Engine\Content\Slate\Docking\ShowTabwellButton_Pressed.png	2017-05-20T14:00:23.261Z
Engine\Content\Slate\Docking\TabContentArea.png	2017-05-20T14:00:23.279Z
Engine\Content\Slate\Docking\TabWellSeparator.png	2017-05-20T14:00:23.280Z
Engine\Content\Slate\Docking\Tab_Active.png	2017-05-20T14:00:23.262Z
Engine\Content\Slate\Docking\Tab_ColorOverlay.png	2017-05-20T14:00:23.273Z
Engine\Content\Slate\Docking\Tab_Foreground.png	2017-05-20T14:00:23.274Z
Engine\Content\Slate\Docking\Tab_Hovered.png	2017-05-20T14:00:23.276Z
Engine\Content\Slate\Docking\Tab_Inactive.png	2017-05-20T14:00:23.277Z
Engine\Content\Slate\Fonts\DroidSans.tps	2017-05-20T14:00:23.286Z
Engine\Content\Slate\Fonts\DroidSansFallback.ttf	2017-05-20T14:00:23.303Z
Engine\Content\Slate\Fonts\DroidSansMono.ttf	2017-05-20T14:00:23.309Z
Engine\Content\Slate\Fonts\NanumGothic.tps	2017-05-20T14:00:23.316Z
Engine\Content\Slate\Fonts\NanumGothic.ttf	2017-05-20T14:00:23.333Z
Engine\Content\Slate\Fonts\Noto.tps	2017-05-20T14:00:23.335Z
Engine\Content\Slate\Fonts\NotoNaskhArabicUI-Regular.ttf	2017-05-20T14:00:23.340Z
Engine\Content\Slate\Fonts\Roboto-Bold.ttf	2017-05-20T14:00:23.345Z
Engine\Content\Slate\Fonts\Roboto-Light.ttf	2017-05-20T14:00:23.350Z
Engine\Content\Slate\Fonts\Roboto-Regular.ttf	2017-05-20T14:00:23.355Z
Engine\Content\Slate\Fonts\Roboto.tps	2017-05-20T14:00:23.357Z
Engine\Content\Slate\Icons\BackIcon.png	2017-05-20T14:00:23.358Z
Engine\Content\Slate\Icons\Cross_12x.png	2017-05-20T14:00:23.360Z
Engine\Content\Slate\Icons\cursor_cardinal_cross.png	2017-05-20T14:00:23.361Z
Engine\Content\Slate\Icons\cursor_grab.png	2017-05-20T14:00:23.363Z
Engine\Content\Slate\Icons\DefaultAppIcon.png	2017-05-20T14:00:23.365Z
Engine\Content\Slate\Icons\denied_16x.png	2017-05-20T14:00:23.366Z
Engine\Content\Slate\Icons\ellipsis_12x.png	2017-05-20T14:00:23.377Z
Engine\Content\Slate\Icons\Empty_14x.png	2017-05-20T14:00:23.378Z
Engine\Content\Slate\Icons\eyedropper_16px.png	2017-05-20T14:00:23.380Z
Engine\Content\Slate\Icons\icon_Downloads_16x.png	2017-05-20T14:00:23.381Z
Engine\Content\Slate\Icons\icon_error_16x.png	2017-05-20T14:00:23.382Z
Engine\Content\Slate\Icons\icon_generic_toolbar.png	2017-05-20T14:00:23.384Z
Engine\Content\Slate\Icons\icon_help_16x.png	2017-05-20T14:00:23.385Z
Engine\Content\Slate\Icons\icon_info_16x.png	2017-05-20T14:00:23.387Z
Engine\Content\Slate\Icons\icon_redo_16px.png	2017-05-20T14:00:23.388Z
Engine\Content\Slate\Icons\icon_tab_toolbar_16px.png	2017-05-20T14:00:23.390Z
Engine\Content\Slate\Icons\icon_tab_WidgetReflector_16x.png	2017-05-20T14:00:23.391Z
Engine\Content\Slate\Icons\icon_tab_WidgetReflector_40x.png	2017-05-20T14:00:23.393Z
Engine\Content\Slate\Icons\icon_undo_16px.png	2017-05-20T14:00:23.395Z
Engine\Content\Slate\Icons\icon_warning_16x.png	2017-05-20T14:00:23.396Z
Engine\Content\Slate\Icons\NextIcon.png	2017-05-20T14:00:23.397Z
Engine\Content\Slate\Icons\notificationlist_fail.png	2017-05-20T14:00:23.399Z
Engine\Content\Slate\Icons\notificationlist_success.png	2017-05-20T14:00:23.400Z
Engine\Content\Slate\Icons\PlusSymbol_12x.png	2017-05-20T14:00:23.401Z
Engine\Content\Slate\Icons\toolbar_expand_16x.png	2017-05-20T14:00:23.402Z
Engine\Content\Slate\Icons\TrashCan.png	2017-05-20T14:00:23.404Z
Engine\Content\Slate\Icons\TrashCan_Small.png	2017-05-20T14:00:23.406Z
Engine\Content\Slate\Icons\Edit\icon_Edit_Copy_16x.png	2017-05-20T14:00:23.368Z
Engine\Content\Slate\Icons\Edit\icon_Edit_Cut_16x.png	2017-05-20T14:00:23.370Z
Engine\Content\Slate\Icons\Edit\icon_Edit_Delete_16x.png	2017-05-20T14:00:23.372Z
Engine\Content\Slate\Icons\Edit\icon_Edit_Duplicate_16x.png	2017-05-20T14:00:23.374Z
Engine\Content\Slate\Icons\Edit\icon_Edit_Paste_16x.png	2017-05-20T14:00:23.375Z
Engine\Content\Slate\MessageLog\Log_Error.png	2017-05-20T14:00:23.408Z
Engine\Content\Slate\MessageLog\Log_Note.png	2017-05-20T14:00:23.409Z
Engine\Content\Slate\MessageLog\Log_Warning.png	2017-05-20T14:00:23.410Z
Engine\Content\Slate\Old\Border.PNG	2017-05-20T14:00:23.412Z
Engine\Content\Slate\Old\Button.png	2017-05-20T14:00:23.413Z
Engine\Content\Slate\Old\DashedBorder.png	2017-05-20T14:00:23.415Z
Engine\Content\Slate\Old\HyperlinkDotted.png	2017-05-20T14:00:23.416Z
Engine\Content\Slate\Old\HyperlinkUnderline.png	2017-05-20T14:00:23.418Z
Engine\Content\Slate\Old\Menu_Background.png	2017-05-20T14:00:23.419Z
Engine\Content\Slate\Old\Menu_Background_Inverted_Border_Bold.png	2017-05-20T14:00:23.420Z
Engine\Content\Slate\Old\Notification_Border_Flash.png	2017-05-20T14:00:23.422Z
Engine\Content\Slate\Old\ToolBar_Background.png	2017-05-20T14:00:23.423Z
Engine\Content\Slate\Old\ToolTip_Background.png	2017-05-20T14:00:23.424Z
Engine\Content\Slate\Old\ToolTip_BrightBackground.png	2017-05-20T14:00:23.426Z
Engine\Content\Slate\Old\White.png	2017-05-20T14:00:23.427Z
Engine\Content\Slate\Testing\BrushWireframe.png	2017-05-20T14:00:23.429Z
Engine\Content\Slate\Testing\DefaultPawn_16px.png	2017-05-20T14:00:23.430Z
Engine\Content\Slate\Testing\FlatColorSquare.png	2017-05-20T14:00:23.432Z
Engine\Content\Slate\Testing\GammaReference.png	2017-05-20T14:00:23.453Z
Engine\Content\Slate\Testing\Hyperlink.png	2017-05-20T14:00:23.454Z
Engine\Content\Slate\Testing\Lit.png	2017-05-20T14:00:23.456Z
Engine\Content\Slate\Testing\NewLevelBlank.png	2017-05-20T14:00:23.457Z
Engine\Content\Slate\Testing\TestRotation.png	2017-05-20T14:00:23.459Z
Engine\Content\Slate\Testing\UE4Icon.png	2017-05-20T14:00:23.460Z
Engine\Content\Slate\Testing\Unlit.png	2017-05-20T14:00:23.462Z
Engine\Content\Slate\Testing\Wireframe.png	2017-05-20T14:00:23.463Z
Engine\Content\Slate\Testing\Fonts\Roboto-BlackItalic.ttf	2017-05-20T14:00:23.437Z
Engine\Content\Slate\Testing\Fonts\Roboto-BoldItalic.ttf	2017-05-20T14:00:23.442Z
Engine\Content\Slate\Testing\Fonts\Roboto-Italic.ttf	2017-05-20T14:00:23.447Z
Engine\Content\Slate\Testing\Fonts\Roboto.tps	2017-05-20T14:00:23.451Z
Engine\Content\Slate\Tutorials\TutorialBorder.png	2017-05-20T14:00:23.465Z
Engine\Content\Slate\Tutorials\TutorialShadow.png	2017-05-20T14:00:23.466Z
Engine\Shaders\StandaloneRenderer\D3D\GammaCorrectionCommon.hlsl	2017-05-20T14:52:39.644Z
Engine\Shaders\StandaloneRenderer\D3D\SlateDefaultVertexShader.hlsl	2017-05-20T14:52:39.645Z
Engine\Shaders\StandaloneRenderer\D3D\SlateElementPixelShader.hlsl	2017-05-20T14:52:39.646Z
Engine\Shaders\StandaloneRenderer\OpenGL\SlateElementPixelShader.glsl	2017-05-20T14:52:39.647Z
Engine\Shaders\StandaloneRenderer\OpenGL\SlateVertexShader.glsl	2017-05-20T14:52:39.648Z
Engine\Shaders\StandaloneRenderer\OpenGL\SplashFragmentShader.glsl	2017-05-20T14:52:39.649Z
Engine\Shaders\StandaloneRenderer\OpenGL\SplashVertexShader.glsl	2017-05-20T14:52:39.650Z
Engine\Content\Internationalization\icudt53l\cnvalias.icu	2017-05-20T13:59:47.138Z
Engine\Content\Internationalization\icudt53l\confusables.cfu	2017-05-20T13:59:47.175Z
Engine\Content\Internationalization\icudt53l\en.res	2017-05-20T13:59:47.377Z
Engine\Content\Internationalization\icudt53l\en_001.res	2017-05-20T13:59:47.378Z
Engine\Content\Internationalization\icudt53l\en_150.res	2017-05-20T13:59:47.382Z
Engine\Content\Internationalization\icudt53l\en_AG.res	2017-05-20T13:59:47.386Z
Engine\Content\Internationalization\icudt53l\en_AI.res	2017-05-20T13:59:47.390Z
Engine\Content\Internationalization\icudt53l\en_AS.res	2017-05-20T13:59:47.391Z
Engine\Content\Internationalization\icudt53l\en_AU.res	2017-05-20T13:59:47.392Z
Engine\Content\Internationalization\icudt53l\en_BB.res	2017-05-20T13:59:47.394Z
Engine\Content\Internationalization\icudt53l\en_BE.res	2017-05-20T13:59:47.395Z
Engine\Content\Internationalization\icudt53l\en_BM.res	2017-05-20T13:59:47.396Z
Engine\Content\Internationalization\icudt53l\en_BS.res	2017-05-20T13:59:47.398Z
Engine\Content\Internationalization\icudt53l\en_BW.res	2017-05-20T13:59:47.399Z
Engine\Content\Internationalization\icudt53l\en_BZ.res	2017-05-20T13:59:47.403Z
Engine\Content\Internationalization\icudt53l\en_CA.res	2017-05-20T13:59:47.404Z
Engine\Content\Internationalization\icudt53l\en_CC.res	2017-05-20T13:59:47.406Z
Engine\Content\Internationalization\icudt53l\en_CK.res	2017-05-20T13:59:47.407Z
Engine\Content\Internationalization\icudt53l\en_CM.res	2017-05-20T13:59:47.408Z
Engine\Content\Internationalization\icudt53l\en_CX.res	2017-05-20T13:59:47.410Z
Engine\Content\Internationalization\icudt53l\en_DG.res	2017-05-20T13:59:47.411Z
Engine\Content\Internationalization\icudt53l\en_DM.res	2017-05-20T13:59:47.412Z
Engine\Content\Internationalization\icudt53l\en_ER.res	2017-05-20T13:59:47.413Z
Engine\Content\Internationalization\icudt53l\en_FJ.res	2017-05-20T13:59:47.414Z
Engine\Content\Internationalization\icudt53l\en_FK.res	2017-05-20T13:59:47.416Z
Engine\Content\Internationalization\icudt53l\en_FM.res	2017-05-20T13:59:47.417Z
Engine\Content\Internationalization\icudt53l\en_GB.res	2017-05-20T13:59:47.418Z
Engine\Content\Internationalization\icudt53l\en_GD.res	2017-05-20T13:59:47.419Z
Engine\Content\Internationalization\icudt53l\en_GG.res	2017-05-20T13:59:47.420Z
Engine\Content\Internationalization\icudt53l\en_GH.res	2017-05-20T13:59:47.422Z
Engine\Content\Internationalization\icudt53l\en_GI.res	2017-05-20T13:59:47.423Z
Engine\Content\Internationalization\icudt53l\en_GM.res	2017-05-20T13:59:47.424Z
Engine\Content\Internationalization\icudt53l\en_GU.res	2017-05-20T13:59:47.425Z
Engine\Content\Internationalization\icudt53l\en_GY.res	2017-05-20T13:59:47.427Z
Engine\Content\Internationalization\icudt53l\en_HK.res	2017-05-20T13:59:47.433Z
Engine\Content\Internationalization\icudt53l\en_IE.res	2017-05-20T13:59:47.434Z
Engine\Content\Internationalization\icudt53l\en_IM.res	2017-05-20T13:59:47.435Z
Engine\Content\Internationalization\icudt53l\en_IN.res	2017-05-20T13:59:47.436Z
Engine\Content\Internationalization\icudt53l\en_IO.res	2017-05-20T13:59:47.438Z
Engine\Content\Internationalization\icudt53l\en_JE.res	2017-05-20T13:59:47.439Z
Engine\Content\Internationalization\icudt53l\en_JM.res	2017-05-20T13:59:47.440Z
Engine\Content\Internationalization\icudt53l\en_KE.res	2017-05-20T13:59:47.441Z
Engine\Content\Internationalization\icudt53l\en_KI.res	2017-05-20T13:59:47.442Z
Engine\Content\Internationalization\icudt53l\en_KN.res	2017-05-20T13:59:47.445Z
Engine\Content\Internationalization\icudt53l\en_KY.res	2017-05-20T13:59:47.446Z
Engine\Content\Internationalization\icudt53l\en_LC.res	2017-05-20T13:59:47.447Z
Engine\Content\Internationalization\icudt53l\en_LR.res	2017-05-20T13:59:47.448Z
Engine\Content\Internationalization\icudt53l\en_LS.res	2017-05-20T13:59:47.450Z
Engine\Content\Internationalization\icudt53l\en_MG.res	2017-05-20T13:59:47.451Z
Engine\Content\Internationalization\icudt53l\en_MH.res	2017-05-20T13:59:47.452Z
Engine\Content\Internationalization\icudt53l\en_MO.res	2017-05-20T13:59:47.453Z
Engine\Content\Internationalization\icudt53l\en_MP.res	2017-05-20T13:59:47.455Z
Engine\Content\Internationalization\icudt53l\en_MS.res	2017-05-20T13:59:47.456Z
Engine\Content\Internationalization\icudt53l\en_MT.res	2017-05-20T13:59:47.457Z
Engine\Content\Internationalization\icudt53l\en_MU.res	2017-05-20T13:59:47.459Z
Engine\Content\Internationalization\icudt53l\en_MW.res	2017-05-20T13:59:47.460Z
Engine\Content\Internationalization\icudt53l\en_NA.res	2017-05-20T13:59:47.461Z
Engine\Content\Internationalization\icudt53l\en_NF.res	2017-05-20T13:59:47.462Z
Engine\Content\Internationalization\icudt53l\en_NG.res	2017-05-20T13:59:47.463Z
Engine\Content\Internationalization\icudt53l\en_NH.res	2017-05-20T13:59:47.465Z
Engine\Content\Internationalization\icudt53l\en_NR.res	2017-05-20T13:59:47.466Z
Engine\Content\Internationalization\icudt53l\en_NU.res	2017-05-20T13:59:47.467Z
Engine\Content\Internationalization\icudt53l\en_NZ.res	2017-05-20T13:59:47.468Z
Engine\Content\Internationalization\icudt53l\en_PG.res	2017-05-20T13:59:47.470Z
Engine\Content\Internationalization\icudt53l\en_PH.res	2017-05-20T13:59:47.471Z
Engine\Content\Internationalization\icudt53l\en_PK.res	2017-05-20T13:59:47.472Z
Engine\Content\Internationalization\icudt53l\en_PN.res	2017-05-20T13:59:47.474Z
Engine\Content\Internationalization\icudt53l\en_PR.res	2017-05-20T13:59:47.475Z
Engine\Content\Internationalization\icudt53l\en_PW.res	2017-05-20T13:59:47.476Z
Engine\Content\Internationalization\icudt53l\en_RH.res	2017-05-20T13:59:47.478Z
Engine\Content\Internationalization\icudt53l\en_RW.res	2017-05-20T13:59:47.479Z
Engine\Content\Internationalization\icudt53l\en_SB.res	2017-05-20T13:59:47.480Z
Engine\Content\Internationalization\icudt53l\en_SC.res	2017-05-20T13:59:47.481Z
Engine\Content\Internationalization\icudt53l\en_SD.res	2017-05-20T13:59:47.483Z
Engine\Content\Internationalization\icudt53l\en_SG.res	2017-05-20T13:59:47.484Z
Engine\Content\Internationalization\icudt53l\en_SH.res	2017-05-20T13:59:47.486Z
Engine\Content\Internationalization\icudt53l\en_SL.res	2017-05-20T13:59:47.487Z
Engine\Content\Internationalization\icudt53l\en_SS.res	2017-05-20T13:59:47.488Z
Engine\Content\Internationalization\icudt53l\en_SX.res	2017-05-20T13:59:47.489Z
Engine\Content\Internationalization\icudt53l\en_SZ.res	2017-05-20T13:59:47.491Z
Engine\Content\Internationalization\icudt53l\en_TC.res	2017-05-20T13:59:47.492Z
Engine\Content\Internationalization\icudt53l\en_TK.res	2017-05-20T13:59:47.493Z
Engine\Content\Internationalization\icudt53l\en_TO.res	2017-05-20T13:59:47.494Z
Engine\Content\Internationalization\icudt53l\en_TT.res	2017-05-20T13:59:47.495Z
Engine\Content\Internationalization\icudt53l\en_TV.res	2017-05-20T13:59:47.497Z
Engine\Content\Internationalization\icudt53l\en_TZ.res	2017-05-20T13:59:47.498Z
Engine\Content\Internationalization\icudt53l\en_UG.res	2017-05-20T13:59:47.499Z
Engine\Content\Internationalization\icudt53l\en_UM.res	2017-05-20T13:59:47.500Z
Engine\Content\Internationalization\icudt53l\en_US.res	2017-05-20T13:59:47.502Z
Engine\Content\Internationalization\icudt53l\en_US_POSIX.res	2017-05-20T13:59:47.503Z
Engine\Content\Internationalization\icudt53l\en_VC.res	2017-05-20T13:59:47.504Z
Engine\Content\Internationalization\icudt53l\en_VG.res	2017-05-20T13:59:47.505Z
Engine\Content\Internationalization\icudt53l\en_VI.res	2017-05-20T13:59:47.506Z
Engine\Content\Internationalization\icudt53l\en_VU.res	2017-05-20T13:59:47.508Z
Engine\Content\Internationalization\icudt53l\en_WS.res	2017-05-20T13:59:47.509Z
Engine\Content\Internationalization\icudt53l\en_ZA.res	2017-05-20T13:59:47.511Z
Engine\Content\Internationalization\icudt53l\en_ZM.res	2017-05-20T13:59:47.512Z
Engine\Content\Internationalization\icudt53l\en_ZW.res	2017-05-20T13:59:47.513Z
Engine\Content\Internationalization\icudt53l\ibm-1047_P100-1995.cnv	2017-05-20T13:59:47.514Z
Engine\Content\Internationalization\icudt53l\ibm-37_P100-1995.cnv	2017-05-20T13:59:47.516Z
Engine\Content\Internationalization\icudt53l\keyTypeData.res	2017-05-20T13:59:47.517Z
Engine\Content\Internationalization\icudt53l\leet.res	2017-05-20T13:59:47.682Z
Engine\Content\Internationalization\icudt53l\metaZones.res	2017-05-20T13:59:47.686Z
Engine\Content\Internationalization\icudt53l\nfc.nrm	2017-05-20T13:59:47.691Z
Engine\Content\Internationalization\icudt53l\nfkc.nrm	2017-05-20T13:59:47.697Z
Engine\Content\Internationalization\icudt53l\nfkc_cf.nrm	2017-05-20T13:59:47.701Z
Engine\Content\Internationalization\icudt53l\numberingSystems.res	2017-05-20T13:59:47.740Z
Engine\Content\Internationalization\icudt53l\plurals.res	2017-05-20T13:59:47.748Z
Engine\Content\Internationalization\icudt53l\pool.res	2017-05-20T13:59:47.751Z
Engine\Content\Internationalization\icudt53l\res_index.res	2017-05-20T13:59:47.914Z
Engine\Content\Internationalization\icudt53l\root.res	2017-05-20T13:59:47.919Z
Engine\Content\Internationalization\icudt53l\timezoneTypes.res	2017-05-20T13:59:47.923Z
Engine\Content\Internationalization\icudt53l\unames.icu	2017-05-20T13:59:47.928Z
Engine\Content\Internationalization\icudt53l\uts46.nrm	2017-05-20T13:59:47.933Z
Engine\Content\Internationalization\icudt53l\windowsZones.res	2017-05-20T13:59:47.937Z
Engine\Content\Internationalization\icudt53l\zoneinfo64.res	2017-05-20T13:59:48.102Z
Engine\Content\Internationalization\icudt53l\brkitr\char.brk	2017-05-20T13:59:47.083Z
Engine\Content\Internationalization\icudt53l\brkitr\en.res	2017-05-20T13:59:47.088Z
Engine\Content\Internationalization\icudt53l\brkitr\en_US.res	2017-05-20T13:59:47.090Z
Engine\Content\Internationalization\icudt53l\brkitr\en_US_POSIX.res	2017-05-20T13:59:47.091Z
Engine\Content\Internationalization\icudt53l\brkitr\leet.res	2017-05-20T13:59:47.096Z
Engine\Content\Internationalization\icudt53l\brkitr\line.brk	2017-05-20T13:59:47.103Z
Engine\Content\Internationalization\icudt53l\brkitr\res_index.res	2017-05-20T13:59:47.105Z
Engine\Content\Internationalization\icudt53l\brkitr\root.res	2017-05-20T13:59:47.109Z
Engine\Content\Internationalization\icudt53l\brkitr\sent.brk	2017-05-20T13:59:47.114Z
Engine\Content\Internationalization\icudt53l\brkitr\title.brk	2017-05-20T13:59:47.120Z
Engine\Content\Internationalization\icudt53l\brkitr\word.brk	2017-05-20T13:59:47.127Z
Engine\Content\Internationalization\icudt53l\brkitr\word_POSIX.brk	2017-05-20T13:59:47.132Z
Engine\Content\Internationalization\icudt53l\coll\en.res	2017-05-20T13:59:47.140Z
Engine\Content\Internationalization\icudt53l\coll\en_US.res	2017-05-20T13:59:47.144Z
Engine\Content\Internationalization\icudt53l\coll\en_US_POSIX.res	2017-05-20T13:59:47.149Z
Engine\Content\Internationalization\icudt53l\coll\leet.res	2017-05-20T13:59:47.155Z
Engine\Content\Internationalization\icudt53l\coll\res_index.res	2017-05-20T13:59:47.157Z
Engine\Content\Internationalization\icudt53l\coll\root.res	2017-05-20T13:59:47.163Z
Engine\Content\Internationalization\icudt53l\coll\ucadata.icu	2017-05-20T13:59:47.169Z
Engine\Content\Internationalization\icudt53l\curr\en.res	2017-05-20T13:59:47.181Z
Engine\Content\Internationalization\icudt53l\curr\en_001.res	2017-05-20T13:59:47.186Z
Engine\Content\Internationalization\icudt53l\curr\en_150.res	2017-05-20T13:59:47.188Z
Engine\Content\Internationalization\icudt53l\curr\en_AG.res	2017-05-20T13:59:47.189Z
Engine\Content\Internationalization\icudt53l\curr\en_AI.res	2017-05-20T13:59:47.191Z
Engine\Content\Internationalization\icudt53l\curr\en_AU.res	2017-05-20T13:59:47.193Z
Engine\Content\Internationalization\icudt53l\curr\en_BB.res	2017-05-20T13:59:47.197Z
Engine\Content\Internationalization\icudt53l\curr\en_BE.res	2017-05-20T13:59:47.198Z
Engine\Content\Internationalization\icudt53l\curr\en_BM.res	2017-05-20T13:59:47.200Z
Engine\Content\Internationalization\icudt53l\curr\en_BS.res	2017-05-20T13:59:47.204Z
Engine\Content\Internationalization\icudt53l\curr\en_BW.res	2017-05-20T13:59:47.206Z
Engine\Content\Internationalization\icudt53l\curr\en_BZ.res	2017-05-20T13:59:47.209Z
Engine\Content\Internationalization\icudt53l\curr\en_CA.res	2017-05-20T13:59:47.211Z
Engine\Content\Internationalization\icudt53l\curr\en_CC.res	2017-05-20T13:59:47.212Z
Engine\Content\Internationalization\icudt53l\curr\en_CK.res	2017-05-20T13:59:47.216Z
Engine\Content\Internationalization\icudt53l\curr\en_CM.res	2017-05-20T13:59:47.217Z
Engine\Content\Internationalization\icudt53l\curr\en_CX.res	2017-05-20T13:59:47.219Z
Engine\Content\Internationalization\icudt53l\curr\en_DG.res	2017-05-20T13:59:47.222Z
Engine\Content\Internationalization\icudt53l\curr\en_DM.res	2017-05-20T13:59:47.224Z
Engine\Content\Internationalization\icudt53l\curr\en_ER.res	2017-05-20T13:59:47.227Z
Engine\Content\Internationalization\icudt53l\curr\en_FJ.res	2017-05-20T13:59:47.229Z
Engine\Content\Internationalization\icudt53l\curr\en_FK.res	2017-05-20T13:59:47.230Z
Engine\Content\Internationalization\icudt53l\curr\en_FM.res	2017-05-20T13:59:47.232Z
Engine\Content\Internationalization\icudt53l\curr\en_GB.res	2017-05-20T13:59:47.236Z
Engine\Content\Internationalization\icudt53l\curr\en_GD.res	2017-05-20T13:59:47.237Z
Engine\Content\Internationalization\icudt53l\curr\en_GG.res	2017-05-20T13:59:47.241Z
Engine\Content\Internationalization\icudt53l\curr\en_GH.res	2017-05-20T13:59:47.245Z
Engine\Content\Internationalization\icudt53l\curr\en_GI.res	2017-05-20T13:59:47.248Z
Engine\Content\Internationalization\icudt53l\curr\en_GM.res	2017-05-20T13:59:47.250Z
Engine\Content\Internationalization\icudt53l\curr\en_GY.res	2017-05-20T13:59:47.251Z
Engine\Content\Internationalization\icudt53l\curr\en_HK.res	2017-05-20T13:59:47.255Z
Engine\Content\Internationalization\icudt53l\curr\en_IE.res	2017-05-20T13:59:47.256Z
Engine\Content\Internationalization\icudt53l\curr\en_IM.res	2017-05-20T13:59:47.258Z
Engine\Content\Internationalization\icudt53l\curr\en_IN.res	2017-05-20T13:59:47.259Z
Engine\Content\Internationalization\icudt53l\curr\en_IO.res	2017-05-20T13:59:47.260Z
Engine\Content\Internationalization\icudt53l\curr\en_JE.res	2017-05-20T13:59:47.262Z
Engine\Content\Internationalization\icudt53l\curr\en_JM.res	2017-05-20T13:59:47.263Z
Engine\Content\Internationalization\icudt53l\curr\en_KE.res	2017-05-20T13:59:47.264Z
Engine\Content\Internationalization\icudt53l\curr\en_KI.res	2017-05-20T13:59:47.266Z
Engine\Content\Internationalization\icudt53l\curr\en_KN.res	2017-05-20T13:59:47.267Z
Engine\Content\Internationalization\icudt53l\curr\en_KY.res	2017-05-20T13:59:47.269Z
Engine\Content\Internationalization\icudt53l\curr\en_LC.res	2017-05-20T13:59:47.270Z
Engine\Content\Internationalization\icudt53l\curr\en_LR.res	2017-05-20T13:59:47.274Z
Engine\Content\Internationalization\icudt53l\curr\en_LS.res	2017-05-20T13:59:47.275Z
Engine\Content\Internationalization\icudt53l\curr\en_MG.res	2017-05-20T13:59:47.279Z
Engine\Content\Internationalization\icudt53l\curr\en_MO.res	2017-05-20T13:59:47.281Z
Engine\Content\Internationalization\icudt53l\curr\en_MS.res	2017-05-20T13:59:47.282Z
Engine\Content\Internationalization\icudt53l\curr\en_MT.res	2017-05-20T13:59:47.283Z
Engine\Content\Internationalization\icudt53l\curr\en_MU.res	2017-05-20T13:59:47.287Z
Engine\Content\Internationalization\icudt53l\curr\en_MW.res	2017-05-20T13:59:47.288Z
Engine\Content\Internationalization\icudt53l\curr\en_NA.res	2017-05-20T13:59:47.290Z
Engine\Content\Internationalization\icudt53l\curr\en_NF.res	2017-05-20T13:59:47.291Z
Engine\Content\Internationalization\icudt53l\curr\en_NG.res	2017-05-20T13:59:47.292Z
Engine\Content\Internationalization\icudt53l\curr\en_NH.res	2017-05-20T13:59:47.294Z
Engine\Content\Internationalization\icudt53l\curr\en_NR.res	2017-05-20T13:59:47.295Z
Engine\Content\Internationalization\icudt53l\curr\en_NU.res	2017-05-20T13:59:47.296Z
Engine\Content\Internationalization\icudt53l\curr\en_NZ.res	2017-05-20T13:59:47.297Z
Engine\Content\Internationalization\icudt53l\curr\en_PG.res	2017-05-20T13:59:47.299Z
Engine\Content\Internationalization\icudt53l\curr\en_PH.res	2017-05-20T13:59:47.300Z
Engine\Content\Internationalization\icudt53l\curr\en_PK.res	2017-05-20T13:59:47.302Z
Engine\Content\Internationalization\icudt53l\curr\en_PN.res	2017-05-20T13:59:47.303Z
Engine\Content\Internationalization\icudt53l\curr\en_PW.res	2017-05-20T13:59:47.304Z
Engine\Content\Internationalization\icudt53l\curr\en_RH.res	2017-05-20T13:59:47.305Z
Engine\Content\Internationalization\icudt53l\curr\en_RW.res	2017-05-20T13:59:47.307Z
Engine\Content\Internationalization\icudt53l\curr\en_SB.res	2017-05-20T13:59:47.308Z
Engine\Content\Internationalization\icudt53l\curr\en_SC.res	2017-05-20T13:59:47.312Z
Engine\Content\Internationalization\icudt53l\curr\en_SD.res	2017-05-20T13:59:47.315Z
Engine\Content\Internationalization\icudt53l\curr\en_SG.res	2017-05-20T13:59:47.317Z
Engine\Content\Internationalization\icudt53l\curr\en_SH.res	2017-05-20T13:59:47.318Z
Engine\Content\Internationalization\icudt53l\curr\en_SL.res	2017-05-20T13:59:47.320Z
Engine\Content\Internationalization\icudt53l\curr\en_SS.res	2017-05-20T13:59:47.323Z
Engine\Content\Internationalization\icudt53l\curr\en_SX.res	2017-05-20T13:59:47.325Z
Engine\Content\Internationalization\icudt53l\curr\en_SZ.res	2017-05-20T13:59:47.326Z
Engine\Content\Internationalization\icudt53l\curr\en_TC.res	2017-05-20T13:59:47.328Z
Engine\Content\Internationalization\icudt53l\curr\en_TK.res	2017-05-20T13:59:47.329Z
Engine\Content\Internationalization\icudt53l\curr\en_TO.res	2017-05-20T13:59:47.330Z
Engine\Content\Internationalization\icudt53l\curr\en_TT.res	2017-05-20T13:59:47.334Z
Engine\Content\Internationalization\icudt53l\curr\en_TV.res	2017-05-20T13:59:47.336Z
Engine\Content\Internationalization\icudt53l\curr\en_TZ.res	2017-05-20T13:59:47.337Z
Engine\Content\Internationalization\icudt53l\curr\en_UG.res	2017-05-20T13:59:47.341Z
Engine\Content\Internationalization\icudt53l\curr\en_VC.res	2017-05-20T13:59:47.342Z
Engine\Content\Internationalization\icudt53l\curr\en_VG.res	2017-05-20T13:59:47.346Z
Engine\Content\Internationalization\icudt53l\curr\en_VU.res	2017-05-20T13:59:47.347Z
Engine\Content\Internationalization\icudt53l\curr\en_WS.res	2017-05-20T13:59:47.348Z
Engine\Content\Internationalization\icudt53l\curr\en_ZA.res	2017-05-20T13:59:47.350Z
Engine\Content\Internationalization\icudt53l\curr\en_ZM.res	2017-05-20T13:59:47.351Z
Engine\Content\Internationalization\icudt53l\curr\en_ZW.res	2017-05-20T13:59:47.352Z
Engine\Content\Internationalization\icudt53l\curr\leet.res	2017-05-20T13:59:47.358Z
Engine\Content\Internationalization\icudt53l\curr\pool.res	2017-05-20T13:59:47.359Z
Engine\Content\Internationalization\icudt53l\curr\res_index.res	2017-05-20T13:59:47.364Z
Engine\Content\Internationalization\icudt53l\curr\root.res	2017-05-20T13:59:47.365Z
Engine\Content\Internationalization\icudt53l\curr\supplementalData.res	2017-05-20T13:59:47.371Z
Engine\Content\Internationalization\icudt53l\lang\en.res	2017-05-20T13:59:47.522Z
Engine\Content\Internationalization\icudt53l\lang\en_150.res	2017-05-20T13:59:47.524Z
Engine\Content\Internationalization\icudt53l\lang\en_AG.res	2017-05-20T13:59:47.525Z
Engine\Content\Internationalization\icudt53l\lang\en_AI.res	2017-05-20T13:59:47.526Z
Engine\Content\Internationalization\icudt53l\lang\en_AU.res	2017-05-20T13:59:47.530Z
Engine\Content\Internationalization\icudt53l\lang\en_BB.res	2017-05-20T13:59:47.531Z
Engine\Content\Internationalization\icudt53l\lang\en_BE.res	2017-05-20T13:59:47.533Z
Engine\Content\Internationalization\icudt53l\lang\en_BM.res	2017-05-20T13:59:47.534Z
Engine\Content\Internationalization\icudt53l\lang\en_BS.res	2017-05-20T13:59:47.536Z
Engine\Content\Internationalization\icudt53l\lang\en_BW.res	2017-05-20T13:59:47.537Z
Engine\Content\Internationalization\icudt53l\lang\en_BZ.res	2017-05-20T13:59:47.538Z
Engine\Content\Internationalization\icudt53l\lang\en_CC.res	2017-05-20T13:59:47.539Z
Engine\Content\Internationalization\icudt53l\lang\en_CK.res	2017-05-20T13:59:47.541Z
Engine\Content\Internationalization\icudt53l\lang\en_CM.res	2017-05-20T13:59:47.542Z
Engine\Content\Internationalization\icudt53l\lang\en_CX.res	2017-05-20T13:59:47.543Z
Engine\Content\Internationalization\icudt53l\lang\en_DG.res	2017-05-20T13:59:47.544Z
Engine\Content\Internationalization\icudt53l\lang\en_DM.res	2017-05-20T13:59:47.546Z
Engine\Content\Internationalization\icudt53l\lang\en_ER.res	2017-05-20T13:59:47.547Z
Engine\Content\Internationalization\icudt53l\lang\en_FJ.res	2017-05-20T13:59:47.548Z
Engine\Content\Internationalization\icudt53l\lang\en_FK.res	2017-05-20T13:59:47.550Z
Engine\Content\Internationalization\icudt53l\lang\en_FM.res	2017-05-20T13:59:47.551Z
Engine\Content\Internationalization\icudt53l\lang\en_GB.res	2017-05-20T13:59:47.552Z
Engine\Content\Internationalization\icudt53l\lang\en_GD.res	2017-05-20T13:59:47.554Z
Engine\Content\Internationalization\icudt53l\lang\en_GG.res	2017-05-20T13:59:47.555Z
Engine\Content\Internationalization\icudt53l\lang\en_GH.res	2017-05-20T13:59:47.556Z
Engine\Content\Internationalization\icudt53l\lang\en_GI.res	2017-05-20T13:59:47.558Z
Engine\Content\Internationalization\icudt53l\lang\en_GM.res	2017-05-20T13:59:47.559Z
Engine\Content\Internationalization\icudt53l\lang\en_GY.res	2017-05-20T13:59:47.561Z
Engine\Content\Internationalization\icudt53l\lang\en_HK.res	2017-05-20T13:59:47.562Z
Engine\Content\Internationalization\icudt53l\lang\en_IE.res	2017-05-20T13:59:47.563Z
Engine\Content\Internationalization\icudt53l\lang\en_IM.res	2017-05-20T13:59:47.565Z
Engine\Content\Internationalization\icudt53l\lang\en_IN.res	2017-05-20T13:59:47.566Z
Engine\Content\Internationalization\icudt53l\lang\en_IO.res	2017-05-20T13:59:47.567Z
Engine\Content\Internationalization\icudt53l\lang\en_JE.res	2017-05-20T13:59:47.569Z
Engine\Content\Internationalization\icudt53l\lang\en_JM.res	2017-05-20T13:59:47.570Z
Engine\Content\Internationalization\icudt53l\lang\en_KE.res	2017-05-20T13:59:47.571Z
Engine\Content\Internationalization\icudt53l\lang\en_KI.res	2017-05-20T13:59:47.573Z
Engine\Content\Internationalization\icudt53l\lang\en_KN.res	2017-05-20T13:59:47.574Z
Engine\Content\Internationalization\icudt53l\lang\en_KY.res	2017-05-20T13:59:47.575Z
Engine\Content\Internationalization\icudt53l\lang\en_LC.res	2017-05-20T13:59:47.576Z
Engine\Content\Internationalization\icudt53l\lang\en_LR.res	2017-05-20T13:59:47.578Z
Engine\Content\Internationalization\icudt53l\lang\en_LS.res	2017-05-20T13:59:47.579Z
Engine\Content\Internationalization\icudt53l\lang\en_MG.res	2017-05-20T13:59:47.580Z
Engine\Content\Internationalization\icudt53l\lang\en_MO.res	2017-05-20T13:59:47.582Z
Engine\Content\Internationalization\icudt53l\lang\en_MS.res	2017-05-20T13:59:47.583Z
Engine\Content\Internationalization\icudt53l\lang\en_MT.res	2017-05-20T13:59:47.585Z
Engine\Content\Internationalization\icudt53l\lang\en_MU.res	2017-05-20T13:59:47.586Z
Engine\Content\Internationalization\icudt53l\lang\en_MW.res	2017-05-20T13:59:47.587Z
Engine\Content\Internationalization\icudt53l\lang\en_NA.res	2017-05-20T13:59:47.589Z
Engine\Content\Internationalization\icudt53l\lang\en_NF.res	2017-05-20T13:59:47.590Z
Engine\Content\Internationalization\icudt53l\lang\en_NG.res	2017-05-20T13:59:47.591Z
Engine\Content\Internationalization\icudt53l\lang\en_NH.res	2017-05-20T13:59:47.593Z
Engine\Content\Internationalization\icudt53l\lang\en_NR.res	2017-05-20T13:59:47.594Z
Engine\Content\Internationalization\icudt53l\lang\en_NU.res	2017-05-20T13:59:47.596Z
Engine\Content\Internationalization\icudt53l\lang\en_NZ.res	2017-05-20T13:59:47.597Z
Engine\Content\Internationalization\icudt53l\lang\en_PG.res	2017-05-20T13:59:47.598Z
Engine\Content\Internationalization\icudt53l\lang\en_PH.res	2017-05-20T13:59:47.600Z
Engine\Content\Internationalization\icudt53l\lang\en_PK.res	2017-05-20T13:59:47.601Z
Engine\Content\Internationalization\icudt53l\lang\en_PN.res	2017-05-20T13:59:47.616Z
Engine\Content\Internationalization\icudt53l\lang\en_PW.res	2017-05-20T13:59:47.617Z
Engine\Content\Internationalization\icudt53l\lang\en_RH.res	2017-05-20T13:59:47.621Z
Engine\Content\Internationalization\icudt53l\lang\en_RW.res	2017-05-20T13:59:47.622Z
Engine\Content\Internationalization\icudt53l\lang\en_SB.res	2017-05-20T13:59:47.624Z
Engine\Content\Internationalization\icudt53l\lang\en_SC.res	2017-05-20T13:59:47.625Z
Engine\Content\Internationalization\icudt53l\lang\en_SD.res	2017-05-20T13:59:47.626Z
Engine\Content\Internationalization\icudt53l\lang\en_SG.res	2017-05-20T13:59:47.628Z
Engine\Content\Internationalization\icudt53l\lang\en_SH.res	2017-05-20T13:59:47.629Z
Engine\Content\Internationalization\icudt53l\lang\en_SL.res	2017-05-20T13:59:47.630Z
Engine\Content\Internationalization\icudt53l\lang\en_SS.res	2017-05-20T13:59:47.632Z
Engine\Content\Internationalization\icudt53l\lang\en_SX.res	2017-05-20T13:59:47.634Z
Engine\Content\Internationalization\icudt53l\lang\en_SZ.res	2017-05-20T13:59:47.635Z
Engine\Content\Internationalization\icudt53l\lang\en_TC.res	2017-05-20T13:59:47.636Z
Engine\Content\Internationalization\icudt53l\lang\en_TK.res	2017-05-20T13:59:47.637Z
Engine\Content\Internationalization\icudt53l\lang\en_TO.res	2017-05-20T13:59:47.639Z
Engine\Content\Internationalization\icudt53l\lang\en_TT.res	2017-05-20T13:59:47.640Z
Engine\Content\Internationalization\icudt53l\lang\en_TV.res	2017-05-20T13:59:47.641Z
Engine\Content\Internationalization\icudt53l\lang\en_TZ.res	2017-05-20T13:59:47.642Z
Engine\Content\Internationalization\icudt53l\lang\en_UG.res	2017-05-20T13:59:47.643Z
Engine\Content\Internationalization\icudt53l\lang\en_VC.res	2017-05-20T13:59:47.657Z
Engine\Content\Internationalization\icudt53l\lang\en_VG.res	2017-05-20T13:59:47.659Z
Engine\Content\Internationalization\icudt53l\lang\en_VU.res	2017-05-20T13:59:47.660Z
Engine\Content\Internationalization\icudt53l\lang\en_WS.res	2017-05-20T13:59:47.661Z
Engine\Content\Internationalization\icudt53l\lang\en_ZA.res	2017-05-20T13:59:47.663Z
Engine\Content\Internationalization\icudt53l\lang\en_ZM.res	2017-05-20T13:59:47.664Z
Engine\Content\Internationalization\icudt53l\lang\en_ZW.res	2017-05-20T13:59:47.665Z
Engine\Content\Internationalization\icudt53l\lang\leet.res	2017-05-20T13:59:47.670Z
Engine\Content\Internationalization\icudt53l\lang\pool.res	2017-05-20T13:59:47.672Z
Engine\Content\Internationalization\icudt53l\lang\res_index.res	2017-05-20T13:59:47.673Z
Engine\Content\Internationalization\icudt53l\lang\root.res	2017-05-20T13:59:47.677Z
Engine\Content\Internationalization\icudt53l\rbnf\en.res	2017-05-20T13:59:47.761Z
Engine\Content\Internationalization\icudt53l\rbnf\leet.res	2017-05-20T13:59:47.769Z
Engine\Content\Internationalization\icudt53l\rbnf\res_index.res	2017-05-20T13:59:47.771Z
Engine\Content\Internationalization\icudt53l\rbnf\root.res	2017-05-20T13:59:47.776Z
Engine\Content\Internationalization\icudt53l\region\en.res	2017-05-20T13:59:47.778Z
Engine\Content\Internationalization\icudt53l\region\en_150.res	2017-05-20T13:59:47.780Z
Engine\Content\Internationalization\icudt53l\region\en_AG.res	2017-05-20T13:59:47.782Z
Engine\Content\Internationalization\icudt53l\region\en_AI.res	2017-05-20T13:59:47.783Z
Engine\Content\Internationalization\icudt53l\region\en_AU.res	2017-05-20T13:59:47.785Z
Engine\Content\Internationalization\icudt53l\region\en_BB.res	2017-05-20T13:59:47.787Z
Engine\Content\Internationalization\icudt53l\region\en_BE.res	2017-05-20T13:59:47.789Z
Engine\Content\Internationalization\icudt53l\region\en_BM.res	2017-05-20T13:59:47.790Z
Engine\Content\Internationalization\icudt53l\region\en_BS.res	2017-05-20T13:59:47.792Z
Engine\Content\Internationalization\icudt53l\region\en_BW.res	2017-05-20T13:59:47.793Z
Engine\Content\Internationalization\icudt53l\region\en_BZ.res	2017-05-20T13:59:47.795Z
Engine\Content\Internationalization\icudt53l\region\en_CC.res	2017-05-20T13:59:47.796Z
Engine\Content\Internationalization\icudt53l\region\en_CK.res	2017-05-20T13:59:47.797Z
Engine\Content\Internationalization\icudt53l\region\en_CM.res	2017-05-20T13:59:47.799Z
Engine\Content\Internationalization\icudt53l\region\en_CX.res	2017-05-20T13:59:47.800Z
Engine\Content\Internationalization\icudt53l\region\en_DG.res	2017-05-20T13:59:47.802Z
Engine\Content\Internationalization\icudt53l\region\en_DM.res	2017-05-20T13:59:47.803Z
Engine\Content\Internationalization\icudt53l\region\en_ER.res	2017-05-20T13:59:47.805Z
Engine\Content\Internationalization\icudt53l\region\en_FJ.res	2017-05-20T13:59:47.806Z
Engine\Content\Internationalization\icudt53l\region\en_FK.res	2017-05-20T13:59:47.808Z
Engine\Content\Internationalization\icudt53l\region\en_FM.res	2017-05-20T13:59:47.809Z
Engine\Content\Internationalization\icudt53l\region\en_GB.res	2017-05-20T13:59:47.810Z
Engine\Content\Internationalization\icudt53l\region\en_GD.res	2017-05-20T13:59:47.812Z
Engine\Content\Internationalization\icudt53l\region\en_GG.res	2017-05-20T13:59:47.813Z
Engine\Content\Internationalization\icudt53l\region\en_GH.res	2017-05-20T13:59:47.815Z
Engine\Content\Internationalization\icudt53l\region\en_GI.res	2017-05-20T13:59:47.816Z
Engine\Content\Internationalization\icudt53l\region\en_GM.res	2017-05-20T13:59:47.818Z
Engine\Content\Internationalization\icudt53l\region\en_GY.res	2017-05-20T13:59:47.819Z
Engine\Content\Internationalization\icudt53l\region\en_HK.res	2017-05-20T13:59:47.820Z
Engine\Content\Internationalization\icudt53l\region\en_IE.res	2017-05-20T13:59:47.822Z
Engine\Content\Internationalization\icudt53l\region\en_IM.res	2017-05-20T13:59:47.823Z
Engine\Content\Internationalization\icudt53l\region\en_IN.res	2017-05-20T13:59:47.825Z
Engine\Content\Internationalization\icudt53l\region\en_IO.res	2017-05-20T13:59:47.826Z
Engine\Content\Internationalization\icudt53l\region\en_JE.res	2017-05-20T13:59:47.828Z
Engine\Content\Internationalization\icudt53l\region\en_JM.res	2017-05-20T13:59:47.831Z
Engine\Content\Internationalization\icudt53l\region\en_KE.res	2017-05-20T13:59:47.833Z
Engine\Content\Internationalization\icudt53l\region\en_KI.res	2017-05-20T13:59:47.834Z
Engine\Content\Internationalization\icudt53l\region\en_KN.res	2017-05-20T13:59:47.835Z
Engine\Content\Internationalization\icudt53l\region\en_KY.res	2017-05-20T13:59:47.838Z
Engine\Content\Internationalization\icudt53l\region\en_LC.res	2017-05-20T13:59:47.840Z
Engine\Content\Internationalization\icudt53l\region\en_LR.res	2017-05-20T13:59:47.841Z
Engine\Content\Internationalization\icudt53l\region\en_LS.res	2017-05-20T13:59:47.842Z
Engine\Content\Internationalization\icudt53l\region\en_MG.res	2017-05-20T13:59:47.843Z
Engine\Content\Internationalization\icudt53l\region\en_MO.res	2017-05-20T13:59:47.845Z
Engine\Content\Internationalization\icudt53l\region\en_MS.res	2017-05-20T13:59:47.846Z
Engine\Content\Internationalization\icudt53l\region\en_MT.res	2017-05-20T13:59:47.847Z
Engine\Content\Internationalization\icudt53l\region\en_MU.res	2017-05-20T13:59:47.848Z
Engine\Content\Internationalization\icudt53l\region\en_MW.res	2017-05-20T13:59:47.850Z
Engine\Content\Internationalization\icudt53l\region\en_NA.res	2017-05-20T13:59:47.851Z
Engine\Content\Internationalization\icudt53l\region\en_NF.res	2017-05-20T13:59:47.852Z
Engine\Content\Internationalization\icudt53l\region\en_NG.res	2017-05-20T13:59:47.854Z
Engine\Content\Internationalization\icudt53l\region\en_NH.res	2017-05-20T13:59:47.855Z
Engine\Content\Internationalization\icudt53l\region\en_NR.res	2017-05-20T13:59:47.856Z
Engine\Content\Internationalization\icudt53l\region\en_NU.res	2017-05-20T13:59:47.857Z
Engine\Content\Internationalization\icudt53l\region\en_NZ.res	2017-05-20T13:59:47.859Z
Engine\Content\Internationalization\icudt53l\region\en_PG.res	2017-05-20T13:59:47.860Z
Engine\Content\Internationalization\icudt53l\region\en_PH.res	2017-05-20T13:59:47.861Z
Engine\Content\Internationalization\icudt53l\region\en_PK.res	2017-05-20T13:59:47.863Z
Engine\Content\Internationalization\icudt53l\region\en_PN.res	2017-05-20T13:59:47.866Z
Engine\Content\Internationalization\icudt53l\region\en_PW.res	2017-05-20T13:59:47.868Z
Engine\Content\Internationalization\icudt53l\region\en_RH.res	2017-05-20T13:59:47.869Z
Engine\Content\Internationalization\icudt53l\region\en_RW.res	2017-05-20T13:59:47.870Z
Engine\Content\Internationalization\icudt53l\region\en_SB.res	2017-05-20T13:59:47.872Z
Engine\Content\Internationalization\icudt53l\region\en_SC.res	2017-05-20T13:59:47.873Z
Engine\Content\Internationalization\icudt53l\region\en_SD.res	2017-05-20T13:59:47.874Z
Engine\Content\Internationalization\icudt53l\region\en_SG.res	2017-05-20T13:59:47.875Z
Engine\Content\Internationalization\icudt53l\region\en_SH.res	2017-05-20T13:59:47.876Z
Engine\Content\Internationalization\icudt53l\region\en_SL.res	2017-05-20T13:59:47.878Z
Engine\Content\Internationalization\icudt53l\region\en_SS.res	2017-05-20T13:59:47.879Z
Engine\Content\Internationalization\icudt53l\region\en_SX.res	2017-05-20T13:59:47.880Z
Engine\Content\Internationalization\icudt53l\region\en_SZ.res	2017-05-20T13:59:47.881Z
Engine\Content\Internationalization\icudt53l\region\en_TC.res	2017-05-20T13:59:47.883Z
Engine\Content\Internationalization\icudt53l\region\en_TK.res	2017-05-20T13:59:47.884Z
Engine\Content\Internationalization\icudt53l\region\en_TO.res	2017-05-20T13:59:47.885Z
Engine\Content\Internationalization\icudt53l\region\en_TT.res	2017-05-20T13:59:47.887Z
Engine\Content\Internationalization\icudt53l\region\en_TV.res	2017-05-20T13:59:47.888Z
Engine\Content\Internationalization\icudt53l\region\en_TZ.res	2017-05-20T13:59:47.889Z
Engine\Content\Internationalization\icudt53l\region\en_UG.res	2017-05-20T13:59:47.891Z
Engine\Content\Internationalization\icudt53l\region\en_VC.res	2017-05-20T13:59:47.894Z
Engine\Content\Internationalization\icudt53l\region\en_VG.res	2017-05-20T13:59:47.895Z
Engine\Content\Internationalization\icudt53l\region\en_VU.res	2017-05-20T13:59:47.897Z
Engine\Content\Internationalization\icudt53l\region\en_WS.res	2017-05-20T13:59:47.898Z
Engine\Content\Internationalization\icudt53l\region\en_ZA.res	2017-05-20T13:59:47.899Z
Engine\Content\Internationalization\icudt53l\region\en_ZM.res	2017-05-20T13:59:47.900Z
Engine\Content\Internationalization\icudt53l\region\en_ZW.res	2017-05-20T13:59:47.902Z
Engine\Content\Internationalization\icudt53l\region\leet.res	2017-05-20T13:59:47.903Z
Engine\Content\Internationalization\icudt53l\region\pool.res	2017-05-20T13:59:47.907Z
Engine\Content\Internationalization\icudt53l\region\res_index.res	2017-05-20T13:59:47.909Z
Engine\Content\Internationalization\icudt53l\region\root.res	2017-05-20T13:59:47.910Z
Engine\Content\Internationalization\icudt53l\zone\en.res	2017-05-20T13:59:47.942Z
Engine\Content\Internationalization\icudt53l\zone\en_001.res	2017-05-20T13:59:47.944Z
Engine\Content\Internationalization\icudt53l\zone\en_150.res	2017-05-20T13:59:47.947Z
Engine\Content\Internationalization\icudt53l\zone\en_AG.res	2017-05-20T13:59:47.949Z
Engine\Content\Internationalization\icudt53l\zone\en_AI.res	2017-05-20T13:59:47.950Z
Engine\Content\Internationalization\icudt53l\zone\en_AU.res	2017-05-20T13:59:47.951Z
Engine\Content\Internationalization\icudt53l\zone\en_BB.res	2017-05-20T13:59:47.953Z
Engine\Content\Internationalization\icudt53l\zone\en_BE.res	2017-05-20T13:59:47.955Z
Engine\Content\Internationalization\icudt53l\zone\en_BM.res	2017-05-20T13:59:47.956Z
Engine\Content\Internationalization\icudt53l\zone\en_BS.res	2017-05-20T13:59:47.957Z
Engine\Content\Internationalization\icudt53l\zone\en_BW.res	2017-05-20T13:59:47.961Z
Engine\Content\Internationalization\icudt53l\zone\en_BZ.res	2017-05-20T13:59:47.962Z
Engine\Content\Internationalization\icudt53l\zone\en_CA.res	2017-05-20T13:59:47.964Z
Engine\Content\Internationalization\icudt53l\zone\en_CC.res	2017-05-20T13:59:47.965Z
Engine\Content\Internationalization\icudt53l\zone\en_CK.res	2017-05-20T13:59:47.966Z
Engine\Content\Internationalization\icudt53l\zone\en_CM.res	2017-05-20T13:59:47.968Z
Engine\Content\Internationalization\icudt53l\zone\en_CX.res	2017-05-20T13:59:47.969Z
Engine\Content\Internationalization\icudt53l\zone\en_DG.res	2017-05-20T13:59:47.970Z
Engine\Content\Internationalization\icudt53l\zone\en_DM.res	2017-05-20T13:59:47.972Z
Engine\Content\Internationalization\icudt53l\zone\en_ER.res	2017-05-20T13:59:47.975Z
Engine\Content\Internationalization\icudt53l\zone\en_FJ.res	2017-05-20T13:59:47.977Z
Engine\Content\Internationalization\icudt53l\zone\en_FK.res	2017-05-20T13:59:47.978Z
Engine\Content\Internationalization\icudt53l\zone\en_FM.res	2017-05-20T13:59:47.979Z
Engine\Content\Internationalization\icudt53l\zone\en_GB.res	2017-05-20T13:59:47.981Z
Engine\Content\Internationalization\icudt53l\zone\en_GD.res	2017-05-20T13:59:47.982Z
Engine\Content\Internationalization\icudt53l\zone\en_GG.res	2017-05-20T13:59:47.983Z
Engine\Content\Internationalization\icudt53l\zone\en_GH.res	2017-05-20T13:59:47.985Z
Engine\Content\Internationalization\icudt53l\zone\en_GI.res	2017-05-20T13:59:47.986Z
Engine\Content\Internationalization\icudt53l\zone\en_GM.res	2017-05-20T13:59:47.987Z
Engine\Content\Internationalization\icudt53l\zone\en_GU.res	2017-05-20T13:59:47.991Z
Engine\Content\Internationalization\icudt53l\zone\en_GY.res	2017-05-20T13:59:47.992Z
Engine\Content\Internationalization\icudt53l\zone\en_HK.res	2017-05-20T13:59:47.996Z
Engine\Content\Internationalization\icudt53l\zone\en_IE.res	2017-05-20T13:59:47.998Z
Engine\Content\Internationalization\icudt53l\zone\en_IM.res	2017-05-20T13:59:47.999Z
Engine\Content\Internationalization\icudt53l\zone\en_IN.res	2017-05-20T13:59:48.000Z
Engine\Content\Internationalization\icudt53l\zone\en_IO.res	2017-05-20T13:59:48.002Z
Engine\Content\Internationalization\icudt53l\zone\en_JE.res	2017-05-20T13:59:48.003Z
Engine\Content\Internationalization\icudt53l\zone\en_JM.res	2017-05-20T13:59:48.004Z
Engine\Content\Internationalization\icudt53l\zone\en_KE.res	2017-05-20T13:59:48.007Z
Engine\Content\Internationalization\icudt53l\zone\en_KI.res	2017-05-20T13:59:48.011Z
Engine\Content\Internationalization\icudt53l\zone\en_KN.res	2017-05-20T13:59:48.012Z
Engine\Content\Internationalization\icudt53l\zone\en_KY.res	2017-05-20T13:59:48.013Z
Engine\Content\Internationalization\icudt53l\zone\en_LC.res	2017-05-20T13:59:48.015Z
Engine\Content\Internationalization\icudt53l\zone\en_LR.res	2017-05-20T13:59:48.016Z
Engine\Content\Internationalization\icudt53l\zone\en_LS.res	2017-05-20T13:59:48.017Z
Engine\Content\Internationalization\icudt53l\zone\en_MG.res	2017-05-20T13:59:48.019Z
Engine\Content\Internationalization\icudt53l\zone\en_MH.res	2017-05-20T13:59:48.020Z
Engine\Content\Internationalization\icudt53l\zone\en_MO.res	2017-05-20T13:59:48.024Z
Engine\Content\Internationalization\icudt53l\zone\en_MP.res	2017-05-20T13:59:48.025Z
Engine\Content\Internationalization\icudt53l\zone\en_MS.res	2017-05-20T13:59:48.026Z
Engine\Content\Internationalization\icudt53l\zone\en_MT.res	2017-05-20T13:59:48.028Z
Engine\Content\Internationalization\icudt53l\zone\en_MU.res	2017-05-20T13:59:48.029Z
Engine\Content\Internationalization\icudt53l\zone\en_MW.res	2017-05-20T13:59:48.030Z
Engine\Content\Internationalization\icudt53l\zone\en_NA.res	2017-05-20T13:59:48.032Z
Engine\Content\Internationalization\icudt53l\zone\en_NF.res	2017-05-20T13:59:48.033Z
Engine\Content\Internationalization\icudt53l\zone\en_NG.res	2017-05-20T13:59:48.034Z
Engine\Content\Internationalization\icudt53l\zone\en_NH.res	2017-05-20T13:59:48.036Z
Engine\Content\Internationalization\icudt53l\zone\en_NR.res	2017-05-20T13:59:48.037Z
Engine\Content\Internationalization\icudt53l\zone\en_NU.res	2017-05-20T13:59:48.039Z
Engine\Content\Internationalization\icudt53l\zone\en_NZ.res	2017-05-20T13:59:48.040Z
Engine\Content\Internationalization\icudt53l\zone\en_PG.res	2017-05-20T13:59:48.041Z
Engine\Content\Internationalization\icudt53l\zone\en_PH.res	2017-05-20T13:59:48.043Z
Engine\Content\Internationalization\icudt53l\zone\en_PK.res	2017-05-20T13:59:48.044Z
Engine\Content\Internationalization\icudt53l\zone\en_PN.res	2017-05-20T13:59:48.045Z
Engine\Content\Internationalization\icudt53l\zone\en_PW.res	2017-05-20T13:59:48.046Z
Engine\Content\Internationalization\icudt53l\zone\en_RH.res	2017-05-20T13:59:48.048Z
Engine\Content\Internationalization\icudt53l\zone\en_RW.res	2017-05-20T13:59:48.049Z
Engine\Content\Internationalization\icudt53l\zone\en_SB.res	2017-05-20T13:59:48.050Z
Engine\Content\Internationalization\icudt53l\zone\en_SC.res	2017-05-20T13:59:48.051Z
Engine\Content\Internationalization\icudt53l\zone\en_SD.res	2017-05-20T13:59:48.053Z
Engine\Content\Internationalization\icudt53l\zone\en_SG.res	2017-05-20T13:59:48.054Z
Engine\Content\Internationalization\icudt53l\zone\en_SH.res	2017-05-20T13:59:48.055Z
Engine\Content\Internationalization\icudt53l\zone\en_SL.res	2017-05-20T13:59:48.057Z
Engine\Content\Internationalization\icudt53l\zone\en_SS.res	2017-05-20T13:59:48.058Z
Engine\Content\Internationalization\icudt53l\zone\en_SX.res	2017-05-20T13:59:48.059Z
Engine\Content\Internationalization\icudt53l\zone\en_SZ.res	2017-05-20T13:59:48.060Z
Engine\Content\Internationalization\icudt53l\zone\en_TC.res	2017-05-20T13:59:48.062Z
Engine\Content\Internationalization\icudt53l\zone\en_TK.res	2017-05-20T13:59:48.063Z
Engine\Content\Internationalization\icudt53l\zone\en_TO.res	2017-05-20T13:59:48.066Z
Engine\Content\Internationalization\icudt53l\zone\en_TT.res	2017-05-20T13:59:48.067Z
Engine\Content\Internationalization\icudt53l\zone\en_TV.res	2017-05-20T13:59:48.068Z
Engine\Content\Internationalization\icudt53l\zone\en_TZ.res	2017-05-20T13:59:48.070Z
Engine\Content\Internationalization\icudt53l\zone\en_UG.res	2017-05-20T13:59:48.071Z
Engine\Content\Internationalization\icudt53l\zone\en_VC.res	2017-05-20T13:59:48.072Z
Engine\Content\Internationalization\icudt53l\zone\en_VG.res	2017-05-20T13:59:48.074Z
Engine\Content\Internationalization\icudt53l\zone\en_VU.res	2017-05-20T13:59:48.075Z
Engine\Content\Internationalization\icudt53l\zone\en_WS.res	2017-05-20T13:59:48.076Z
Engine\Content\Internationalization\icudt53l\zone\en_ZA.res	2017-05-20T13:59:48.077Z
Engine\Content\Internationalization\icudt53l\zone\en_ZM.res	2017-05-20T13:59:48.079Z
Engine\Content\Internationalization\icudt53l\zone\en_ZW.res	2017-05-20T13:59:48.080Z
Engine\Content\Internationalization\icudt53l\zone\leet.res	2017-05-20T13:59:48.084Z
Engine\Content\Internationalization\icudt53l\zone\pool.res	2017-05-20T13:59:48.089Z
Engine\Content\Internationalization\icudt53l\zone\res_index.res	2017-05-20T13:59:48.093Z
Engine\Content\Internationalization\icudt53l\zone\root.res	2017-05-20T13:59:48.097Z
Engine\Programs\CrashReportClient\Config\DefaultEngine.ini	2017-05-20T14:52:39.393Z
